…
``` r
bojdata <- get_bojfame(series_codes = c("FM01'STRDCLUCON", "IR01'MADR1Z@D"),
                       start_year = 1995, end_year = 2024)
```

The `get_bojfame()` function returns a list containing two key elements.
First, a [tibble](https://tibble.tidyverse.org/) data frame with the
actual time-series data, accessible via `$data`.

``` r
bojdata$data
```

    ## # A tibble: 21,916 × 3
    ##    date       indicator       obs_value
    ##    <date>     <chr>               <dbl>
    ##  1 1995-01-01 FM01'STRDCLUCON     NA   
    ##  2 1995-01-01 IR01'MADR1Z@D        1.75
    ##  3 1995-01-02 FM01'STRDCLUCON     NA   
    ##  4 1995-01-02 IR01'MADR1Z@D        1.75
    ##  5 1995-01-03 FM01'STRDCLUCON     NA   
    ##  6 1995-01-03 IR01'MADR1Z@D        1.75
    ##  7 1995-01-04 FM01'STRDCLUCON     NA   
    ##  8 1995-01-04 IR01'MADR1Z@D        1.75
    ##  9 1995-01-05 FM01'STRDCLUCON     NA   
    ## 10 1995-01-05 IR01'MADR1Z@D        1.75
    ## # ℹ 21,906 more rows
…
